{
	"info": {
		"_postman_id": "87c2b5e8-fdb5-4c41-aef6-52fc53b9f9fe",
		"name": "iceberg",
		"schema": "https://schema.getpostman.com/json/collection/v2.1.0/collection.json"
	},
	"item": [
		{
			"name": "Create user",
			"request": {
				"method": "POST",
				"header": [],
				"body": {
					"mode": "raw",
					"raw": "{\n    \"name\": \"ali\",\n    \"email\":\"ali@ali.om\",\n    \"phone\": \"13213\",\n    \"password\": \"123\"\n}",
					"options": {
						"raw": {
							"language": "json"
						}
					}
				},
				"url": {
					"raw": "http://127.0.0.1:8000/api/user-create",
					"protocol": "http",
					"host": [
						"127",
						"0",
						"0",
						"1"
					],
					"port": "8000",
					"path": [
						"api",
						"user-create"
					]
				}
			},
			"response": []
		},
		{
			"name": "Login",
			"request": {
				"method": "POST",
				"header": [],
				"body": {
					"mode": "raw",
					"raw": "{\n    \"email\":\"ali@ali.om\",\n    \"password\": \"123\"\n}",
					"options": {
						"raw": {
							"language": "json"
						}
					}
				},
				"url": {
					"raw": "http://127.0.0.1:8000/api/user-login",
					"protocol": "http",
					"host": [
						"127",
						"0",
						"0",
						"1"
					],
					"port": "8000",
					"path": [
						"api",
						"user-login"
					]
				}
			},
			"response": []
		},
		{
			"name": "Create Appointment",
			"request": {
				"method": "POST",
				"header": [
					{
						"key": "Content-Type",
						"value": "application/json",
						"type": "text"
					},
					{
						"key": "Authorization",
						"value": "Bearer eyJ0eXAiOiJKV1QiLCJhbGciOiJIUzI1NiJ9.eyJpc3MiOiJodHRwOlwvXC8xMjcuMC4wLjE6ODAwMFwvYXBpXC91c2VyLWxvZ2luIiwiaWF0IjoxNjI4MzM1MjA0LCJleHAiOjE2MjgzMzg4MDQsIm5iZiI6MTYyODMzNTIwNCwianRpIjoiRFhOU01HcTBNZFVTazdjZyIsInN1YiI6MSwicHJ2IjoiMjNiZDVjODk0OWY2MDBhZGIzOWU3MDFjNDAwODcyZGI3YTU5NzZmNyJ9.prBawDzj3wr0YvtdExVgYiRFJGczI2rHpbpZDJz1qls",
						"type": "text"
					}
				],
				"body": {
					"mode": "raw",
					"raw": "{\n    \"address\": \"cm27pj1\",\n    \"date\": \"01.01.2021\",\n    \"name\": \"can\",\n    \"email\": \"can@can\",\n    \"phone\": \"324234\"\n}",
					"options": {
						"raw": {
							"language": "json"
						}
					}
				},
				"url": {
					"raw": "http://127.0.0.1:8000/api/create-appointment",
					"protocol": "http",
					"host": [
						"127",
						"0",
						"0",
						"1"
					],
					"port": "8000",
					"path": [
						"api",
						"create-appointment"
					]
				}
			},
			"response": []
		},
		{
			"name": "Delete Appointment",
			"request": {
				"method": "DELETE",
				"header": [
					{
						"key": "Content-Type",
						"value": "application/json",
						"type": "text"
					},
					{
						"key": "Authorization",
						"value": "Bearer eyJ0eXAiOiJKV1QiLCJhbGciOiJIUzI1NiJ9.eyJpc3MiOiJodHRwOlwvXC8xMjcuMC4wLjE6ODAwMFwvYXBpXC91c2VyLWxvZ2luIiwiaWF0IjoxNjI4MzM3Mjc1LCJleHAiOjE2MjgzNDA4NzUsIm5iZiI6MTYyODMzNzI3NSwianRpIjoiUzFOcW9BMWEzZVpUUHE5eiIsInN1YiI6MywicHJ2IjoiMjNiZDVjODk0OWY2MDBhZGIzOWU3MDFjNDAwODcyZGI3YTU5NzZmNyJ9.57OXwmz4wIQyWJnx233KNu55Q-U3vq_uxxgUHouE0FM",
						"type": "text"
					}
				],
				"body": {
					"mode": "raw",
					"raw": "{\n    \"id\": \"5\"\n}"
				},
				"url": {
					"raw": "http://127.0.0.1:8000/api/delete-appointment",
					"protocol": "http",
					"host": [
						"127",
						"0",
						"0",
						"1"
					],
					"port": "8000",
					"path": [
						"api",
						"delete-appointment"
					]
				}
			},
			"response": []
		},
		{
			"name": "Appointments",
			"request": {
				"method": "GET",
				"header": [
					{
						"key": "Content-Type",
						"value": "application/json",
						"type": "text"
					},
					{
						"key": "Authorization",
						"value": "Bearer eyJ0eXAiOiJKV1QiLCJhbGciOiJIUzI1NiJ9.eyJpc3MiOiJodHRwOlwvXC8xMjcuMC4wLjE6ODAwMFwvYXBpXC91c2VyLWxvZ2luIiwiaWF0IjoxNjI4MzM3Mjc1LCJleHAiOjE2MjgzNDA4NzUsIm5iZiI6MTYyODMzNzI3NSwianRpIjoiUzFOcW9BMWEzZVpUUHE5eiIsInN1YiI6MywicHJ2IjoiMjNiZDVjODk0OWY2MDBhZGIzOWU3MDFjNDAwODcyZGI3YTU5NzZmNyJ9.57OXwmz4wIQyWJnx233KNu55Q-U3vq_uxxgUHouE0FM",
						"type": "text"
					}
				],
				"url": {
					"raw": "http://127.0.0.1:8000/api/appointments",
					"protocol": "http",
					"host": [
						"127",
						"0",
						"0",
						"1"
					],
					"port": "8000",
					"path": [
						"api",
						"appointments"
					]
				}
			},
			"response": []
		},
		{
			"name": "Update Appointment",
			"request": {
				"method": "PUT",
				"header": [
					{
						"key": "Content-Type",
						"value": "application/json",
						"type": "text"
					},
					{
						"key": "Authorization",
						"value": "Bearer eyJ0eXAiOiJKV1QiLCJhbGciOiJIUzI1NiJ9.eyJpc3MiOiJodHRwOlwvXC8xMjcuMC4wLjE6ODAwMFwvYXBpXC91c2VyLWxvZ2luIiwiaWF0IjoxNjI4MzM3Mjc1LCJleHAiOjE2MjgzNDA4NzUsIm5iZiI6MTYyODMzNzI3NSwianRpIjoiUzFOcW9BMWEzZVpUUHE5eiIsInN1YiI6MywicHJ2IjoiMjNiZDVjODk0OWY2MDBhZGIzOWU3MDFjNDAwODcyZGI3YTU5NzZmNyJ9.57OXwmz4wIQyWJnx233KNu55Q-U3vq_uxxgUHouE0FM",
						"type": "text"
					}
				],
				"body": {
					"mode": "raw",
					"raw": "{\n    \"id\": \"6\",\n    \"address\": \"cm27pj\",\n    \"date\": \"01.01.2022\"\n}"
				},
				"url": {
					"raw": "http://127.0.0.1:8000/api/update-appointment",
					"protocol": "http",
					"host": [
						"127",
						"0",
						"0",
						"1"
					],
					"port": "8000",
					"path": [
						"api",
						"update-appointment"
					]
				}
			},
			"response": []
		}
	]
}